{
  ".coveragerc": {
    "coverage": "WULxdJsg52K3hMsbonBeiSHoRY9aN9d0ebf/1TTgBMrHrFgfvOLmw3/b+3wtYQv9jwGWNMEHeKkranToeyDflg=="
  },
  ".gitattributes": {},
  ".gitignore": {
    "git": "ADTUjQ9PpuLim3eq4cD3qhip31QG/IWjGMSLdeb06WVmddDXIQL07VfI2oXEtpvs/BKcETYR7GCrTorrngFfog=="
  },
  ".gitlab-ci.yml": {
    "itkbase.before": "8P/4oCySuwGvYC3cF5t55ei1J6qwSRLi90uScHaS0Zz9YH2AsbnuKViH3RQ2L7pSB6l67TNbT1bOQj9bjUqXSA==",
    "itkbase.image": "vM4Z/TswGQygZ5bF9BPoniw0rqIJnzmEmGpdCBUEfjA/Wlnlvolo90mqvqik2QMsl9YNJbR0owGf4RPF2GuBiA==",
    "itkbase.stages": "cDJLcxs4dsgt1fgwWaaDXQeciT7M0X2FN4OGvrqVfK29HDOcRPaGpYZzeBpoA2EVWhooyJTg5yyJy7hE7BoS/w==",
    "itkpkg.before": "TwnlAmm+8r8qf/iT3faT5p5FTGw4dNlzyXZq+qV5parrH6LLCZx4iciUrzOjnMRiesc50NEr+nrvxfHcVJCTqQ==",
    "itkpkg.pages": "nHQtYb1rPX5s+SUjL3lfik6ZTlRoTT+GBkOAd6Q0pT0SqC4Tkw57Hrk2vnQ3uT9A9B9HLkdFnV6tzc8YEb2QJg==",
    "itkpkg.publish": "cKGRgNUxmh8iSw0TZtvNy1452cIzJtTlJBtBiPj0JtTdX/4GvhWIddK8QZvTR7h/9beQ7VS/O1/9Cc7F8PAWOw==",
    "itkpkg.stages": "ud0vGyEwLf57CU298RUcNP/gPK4W+M0luf63b9YhjYNRst/BV6toz2hrjQpl7mF/bqF27krAE5WlNNMDqSSEfw==",
    "itkpkg.test": "jbNMVtJPyHFkRp/rvXLXddDAbU9pMgJaNSaUhn99VoQgUCcgXxFPYgPSxgQCgDOcAwhqc87zkdMRHvlXOlIGOQ==",
    "itkpkg.test_external": "E0OC3uQlDeIWEDD2NzvTQqr+Dlrw+6eH+CU/dKv40ao8EmPKVLSvnQB2a2fAVnsceCRGylKdaeBaXRjs+rWrnw=="
  },
  ".gitlab/issue_templates/bug.md": {},
  ".gitlab/issue_templates/feature.md": {},
  ".gitlab/issue_templates/technical_task.md": {},
  ".pypirc": {
    "pypi.serverdescr": "b1p1G0QjcMfcxv5I3ogyVEOHqLtKxzWtJ3g6+p7LeHgSmu14xhr/KsHSzW2lQC3tE/flUj+QzRuBfR9ZK7assQ==",
    "pypi.serverlist": "7KBxdxrwcz/oETiRFrRAdUfZha9V0yevSmDycVAmliVc3DcHEgQs6mjfRx5qoDoHLGQZvItpttT+ULF/YAgKkw=="
  },
  "AUTHORS.rst": {
    "doc.authors": "ollK424pwdqjshX6lC6E9bdg2p0VQuqYobL+cRim1uM0oqdm0JtaEIy7bqL5EPbwgktdeFXB9aiI4SXgvd5S1w==",
    "doc.contributors": "nKexYXf68yVgyC59E1aMdmrrQ7xw5sGVqjugWh7C8ki1sDK2tB1aeo2RPz6GdIDyzqDRdijbcJpiolzfZhwqHg=="
  },
  "CONTRIBUTING.rst": {},
  "HISTORY.rst": {},
  "LICENSE": {
    "license": "t3S0tDPkp/7UVIQUYvHhMde/7U8mDcXLY6rxYWTbOpccmNr9mlyli62U/M7lfVbS4VhTV7i5RvlBHbgX+aanjA=="
  },
  "MANIFEST.in": {
    "pysetup": "D5eIbTOZqpLqI/szrjwrcGbABgrjoQ+J8VLW1asgzRq088SwqmG1L/lBlF6earzgWY3hrAAFuhouHNviosO1MA=="
  },
  "README.rst": {
    "doc": "Mc78j9lAMxwjST1wHTmAzqIgESYVOl47mbgI8VSWvYja0m9F3v5fBCTV6AiLWqY9r3vciePqVcnIXAC+nVo3PQ==",
    "itkpkg": "bggKAQgyIYpBUbYz1I6WpblHiDzGAbiMnAxNRxf0O+Kr7AJJrm0FzTO7qrCvbXfLfhoQojsrluBvh27tOpF2vA=="
  },
  "conda/meta.yaml": {
    "conda.about": "vXZ2lbeyjts4I0WYpuEEy6urlO8JShTCSVQm36WgqumhWTPAOUB8FdYGaJquBZkCv2VhLLVlS0uEX39dDnu6Hg==",
    "conda.package": "GtSIv8oNYV3v2mwbY4quzWIzBTpuoneq9x8D/c5KB0ysTm8TyQ3L+a4k+rQvbkj06lOM1VlXjDSwVySC4rcIXg==",
    "conda.req_build": "A4KJ8jO1K57eOtYb3ADXYILiqp/UskyjOcYLbbfMbv+ZBrwxdfvz0BqmNhVeKEckLkiguoAXiTVBseOPyZadzw==",
    "conda.req_run": "90+QNXDPgj2tVR/tdTMl+XKcZbHMX81UUTs+7lvreqO3qPi18e7pphW1kpRYmgH5WU/FE/cGk0yMrCmM+2raCg==",
    "conda.src": "Lzbp176AVU0YantZQxB4LsR2jbxpZ/OlkvY2V4aWAEuzKEarh872uc1eRvsIYf/FsbxvcmUI84AezWlA72nI6A=="
  },
  "conda/requirements.yml": {
    "conda": "o6A4CmZPFH50FdV6phxG1tC2RT/a7UO3Xup2imZU8PowsY/OJwTI3jZB+pAW8OWTUvEFfwY1RQm0/Z9m28rRFg=="
  },
  "conda/requirements_minimal.yml": {
    "conda": "7Jdo++oJkNVU2IpNtr4SUN+U8xC6tGOin1POyuMqzugBvIw1FvIKIPmpXJg+vYevohgL76LiLggVLGvE2UmDCA=="
  },
  "doc/Makefile": {
    "sphinx": "EsaaEppe6Kw79WHpUyBigedrIraP6YlQDBg9Fu6jue32Rt6mCQkk2zH7gfOVqjT5bNpnXN90UfLkrzHVJCo6UQ=="
  },
  "doc/_static/nonempty.txt": {},
  "doc/authors.rst": {},
  "doc/badges/badge_doc.svg": {
    "itkpkg": "IM44vWrZFA6ZoJTo4BFQg+p2bnc/CmUsUhL4Tp3CXXcwBw+ujuJrNJbtl3Z1iVdmX7LNG5LljItsrVOKLY+pEw=="
  },
  "doc/badges/badge_pkging_conda.svg": {
    "itkpkg": "QQRSO9RTClrCYoDJDM2dMXnZwX3R1FTxik3oG/FHA4Arv7zZDmNBGkiFFIfVoLXMqThzavW9a1u1J/ANcqmxoA=="
  },
  "doc/badges/badge_pkging_pip.svg": {
    "itkpkg": "5wuRPAgXO+2fL8Gu9m1BvYPDkhtGdFCaTgM9RuOBdkgGZP1ufobTsjWTHzx9cI8RR7AY8Bhu3AZXohMTGGBw3A=="
  },
  "doc/badges/listing.rst": {
    "itkpkg": "J875RsZlQpBxEvjsulxe+L2Rl8FWyxYzNMmRjPviJ6OWw4FFIP/LOcs1KEF1SMWCDtyGtQj0HWNOLgIJO7Y8Lw=="
  },
  "doc/biblio/biblio.rst": {},
  "doc/biblio/nonempty.txt": {},
  "doc/conf.py": {
    "sphinx": "h4PdY9mjUBnrUoW3bsr1ixV7m7QpdBD7dE/5RKmIRRMKg97Qla/WFTQaeN/3DEWs88WrYBAQ5KI30PjnleiWmA=="
  },
  "doc/contributing.rst": {},
  "doc/history.rst": {},
  "doc/index.rst": {},
  "doc/installation.rst": {},
  "doc/make.bat": {
    "sphinx": "E9sFsnXAm9uPYBn7f0Qb6edct0UKizsXRIJyjZISRCjHbT2HldXK4GIj1yO69R/OVSfnmdAX5lzXQ4wONQNFgA=="
  },
  "doc/management.rst": {},
  "doc/readme.rst": {
    "itkpkg": "PYSEDGCdrp9mH6UaHiqbwtyNzjoLFgUvU7Ujxk1ZI32AoWW9Pur9qMBiO0c/b2uNuYsurXsyqxYKIcJ8JTonPA=="
  },
  "doc/usage.rst": {},
  "doc/user/index.rst": {},
  "doc/user/overview.rst": {},
  "example/nonempty.txt": {},
  "example/readme.rst": {},
  "requirements.txt": {
    "reqs": "evjXmfUGQcIEgTWPN2DTfIL0KEN772RhSNLOPLPyBXg5EYKdtxFEGl16VNzazzM9Um0DQBcxcNOYqwADtYh02Q=="
  },
  "requirements_minimal.txt": {
    "reqs": "TEZ7fRM7Jk21orFsRU5FpcB39XpxGzeapttoRmK1bK1qdhA6o6ZhRVzfqZdLR6WKYSHgru9ARfmXUn2rD1rRPA=="
  },
  "setup.cfg": {
    "sphinx": "mYLeHXWNqXwTk9eWxY4wTrltnDTrAHQvl0l+kosuIfAgrbAuhWMgySq4WR2Y855Q5HDAtGZY7Pnt+BAU6niXIg==",
    "test.nose": "vmiIOMqGhuXJBom/KrWFzvETfJmbSMcLkvZ6XDTcFWl7XRHJgu1tcb4eHn97TgcziEqpfD96M5qO0DV3z3S+CQ==",
    "test.pytest": "R5P5XMaQxSXsNQJ3hXYY45iLvnl8Mbec6XuIaFTum52gym+wTM2TfEbW/N2doHNaCkpdAWg07oblbYi15AwQkA==",
    "wheel": "vUJZkCvbK4LQuEURneKnX/SNIwhJ9/9EaT5T6Uw1K1fauKFFiHnq1DTDES7cgBD0OANelyvwCCZO/rV4Iok+ag=="
  },
  "setup.py": {
    "pysetup.call": "t30iIuCMd/sWxStR2XNYb8bCBgwanhKt8YYn2VKACyAqL5cKFRUWpVRIpAR+uxXUZ9PYYy2csMmECcONnRZE8w==",
    "pysetup.kwds": "GooXFSodlQoI2yOQq8JAcpoBtrVE4Ax7zsz1sz6qaWx3X2zLY9hB82yX/KW9Ry6hU1w3GeXL3h8H/o1aiNtrcw=="
  },
  "src/spa/__init__.py": {
    "src": "L2dZgUBRC5qv3o09+1CbMcgYfQtR1ZNSvP8KlP8REQazZiAQAktALjpCC2ijdxvKPv/tN9KsZrzNW+lZMszSfg==",
    "version": "skSCnavrYKIlfN9Mpi+cANbU8gXulaKdlHryvkjkoSSpsag1I66dM+6JHm1aOdmKYU0rZNNgcIamCMbIL7IeMg=="
  },
  "src/spa/version.py": {
    "version": "aDsHs2WfSwCq5wZtLFJ2gQzjayd0pWchk/Ppwr/hCvp3txS4BeFkghQSDyDHh9O2DWJZY8ZTxg9d3GumMyAiiA=="
  },
  "test/conftest.py": {
    "test.pytest_addoption": "I/hswVryIEYvZRBcFqkfRBxLP6eZCwZSbQuPclkOkjHw4MApBst5h7H0ejnMMe4bmwHXMXR5DCSxOMj/FcCnjQ==",
    "test.pytest_addoption_external": "+40+J/UQDgMQr9Ds9uIanhdWG1GlFSNZ0k7hh5MZm87XRyX5eW+2g7qzO8XzXWBBtBSU2uIRWyhQfpurMEX6RA==",
    "test.pytest_cmdline_preparse": "3xub/cQSiupsNjtVz3fD6QlMs9FcfG5qNLZ0/J1FC9AtpH9GrRcq315Fej08wW5/z03nFHnakOLvKYkgKLJxDA==",
    "test.pytest_collection": "a/3h30sLUHJ7xWsOrmfCInOOVXvm660dS+RxHwcDUcae2jHqDLRGhq/v8zgC+FSzN3pXaEaJ1QBJ9MNLOUBuCA==",
    "test.pytest_collection_external": "HQ4EdyWw13ENhqq9jtd1LIxvzuJtDjHEAQGO0fOP+77AEipwZ8Ukbw2+yOSqBt/htVRg0pvIzFcottV7wUsXLQ==",
    "test.pytest_configure": "SjyTXdrRadJNWhVFYkAvXekjOqNtovwqKNizWD35oZ9XVmsdB/B+lQDzXNPZQ0D5flFpSEURUiGqIvifgEKZ9Q==",
    "test.pytest_configure_external": "UvRR9RXVjEVEVUt07QmadXAhtllO7vWDHEsVTsPtiMROlXbXRvDe7BfMufSPKE0aN+2jdDjZXeYKF69wTNrEaQ==",
    "test.pytest_import": "2ox6A0szNpUYZR5cJJRSW3OwEWR558BOiUMjC/OVkTPT++CF/OCgGSELCPL+7YHWaJGQKMw2rtCXmOMeSK5ZJA=="
  },
  "test/test_packaging.py": {}
}